<?xml version="1.0" encoding="UTF-8" standalone="no"?>
<!-- Created with matplotlib (http://matplotlib.org/) -->

<svg
   xmlns:dc="http://purl.org/dc/elements/1.1/"
   xmlns:cc="http://creativecommons.org/ns#"
   xmlns:rdf="http://www.w3.org/1999/02/22-rdf-syntax-ns#"
   xmlns:svg="http://www.w3.org/2000/svg"
   xmlns="http://www.w3.org/2000/svg"
   xmlns:sodipodi="http://sodipodi.sourceforge.net/DTD/sodipodi-0.dtd"
   xmlns:inkscape="http://www.inkscape.org/namespaces/inkscape"
   height="72pt"
   version="1.1"
   viewBox="0 0 72 72"
   width="72pt"
   id="svg13"
   sodipodi:docname="layout.svg"
   inkscape:export-filename="/media/DATA/Divers/ppa_stats/ppastatslib/images/layout.png"
   inkscape:export-xdpi="24"
   inkscape:export-ydpi="24"
   inkscape:version="0.92.2 2405546, 2018-03-11">
  <metadata
     id="metadata17">
    <rdf:RDF>
      <cc:Work
         rdf:about="">
        <dc:format>image/svg+xml</dc:format>
        <dc:type
           rdf:resource="http://purl.org/dc/dcmitype/StillImage" />
        <dc:title></dc:title>
      </cc:Work>
    </rdf:RDF>
  </metadata>
  <sodipodi:namedview
     pagecolor="#ffffff"
     bordercolor="#666666"
     borderopacity="1"
     objecttolerance="10"
     gridtolerance="10"
     guidetolerance="10"
     inkscape:pageopacity="0"
     inkscape:pageshadow="2"
     inkscape:window-width="1440"
     inkscape:window-height="874"
     id="namedview15"
     showgrid="false"
     showguides="true"
     inkscape:guide-bbox="true"
     inkscape:zoom="1.7383042"
     inkscape:cx="87.851602"
     inkscape:cy="91.706668"
     inkscape:window-x="1680"
     inkscape:window-y="377"
     inkscape:window-maximized="1"
     inkscape:current-layer="svg13">
    <sodipodi:guide
       position="13.590832,14.022287"
       orientation="-0.70710678,0.70710678"
       id="guide853"
       inkscape:locked="false" />
    <sodipodi:guide
       position="-10.35492,82.407902"
       orientation="0.70710678,0.70710678"
       id="guide855"
       inkscape:locked="false"
       inkscape:label=""
       inkscape:color="rgb(0,0,255)" />
    <sodipodi:guide
       position="24.161479,36.242219"
       orientation="0,1"
       id="guide857"
       inkscape:locked="false" />
    <sodipodi:guide
       position="35.810764,43.145499"
       orientation="1,0"
       id="guide859"
       inkscape:locked="false" />
    <sodipodi:guide
       position="3.2359124,25.024389"
       orientation="1,0"
       id="guide861"
       inkscape:locked="false" />
    <sodipodi:guide
       position="14.885197,3.3437761"
       orientation="0,1"
       id="guide863"
       inkscape:locked="false" />
    <sodipodi:guide
       position="68.709206,16.179562"
       orientation="1,0"
       id="guide865"
       inkscape:locked="false" />
  </sodipodi:namedview>
  <defs
     id="defs4">
    <style
       type="text/css"
       id="style2">
*{stroke-linecap:butt;stroke-linejoin:round;}
  </style>
  </defs>
  <g
     id="figure_1"
     transform="matrix(0.43220339,0,0,0.43220339,8.4689856,-15.886089)"
     style="stroke-linecap:butt;stroke-linejoin:round">
    <g
       id="patch_1"
       style="stroke-linecap:butt;stroke-linejoin:round">
      <path
         d="M 0,72 H 72 V 0 H 0 Z"
         style="opacity:0;fill:none;stroke-linecap:butt;stroke-linejoin:round"
         id="path6"
         inkscape:connector-curvature="0" />
    </g>
    <g
       id="text_1"
       style="stroke-linecap:butt;stroke-linejoin:round">
      <path
         d="m 96.684886,156.4034 c -1.825661,1.82567 -2.22385,4.64304 -0.293007,6.57389 l 18.887701,18.8877 H 99.562369 c -1.292238,0 -2.554423,0.51089 -3.463497,1.41996 -0.916588,0.91659 -1.427472,2.17878 -1.419959,3.4635 l 0.02254,4.00443 c 0.0075,1.28473 0.488345,2.51686 1.397419,3.42594 0.916588,0.91658 2.178773,1.42747 3.455985,1.42747 l 34.912953,0.0225 c 1.26219,-0.0301 2.51686,-0.53343 3.43345,-1.45001 0.90907,-0.90908 1.41995,-2.17126 1.41995,-3.4034 l 0.03,-34.96554 c -0.0225,-1.25468 -0.53342,-2.51686 -1.45001,-3.43345 -0.90907,-0.90907 -2.17126,-1.41996 -3.40339,-1.41996 l -4.05702,0.03 c -1.26219,-0.03 -2.52438,0.48084 -3.43345,1.38991 -0.90907,0.90907 -1.41996,2.17126 -1.38991,3.43345 l -0.0301,15.74726 -18.8877,-18.8877 c -1.93085,-1.93085 -4.75574,-1.52514 -6.5814,0.30052 z"
         id="path9"
         inkscape:connector-curvature="0"
         style="stroke-linecap:butt;stroke-linejoin:round" />
      <path
         d="m 100.15721,86.107417 c 1.82566,1.825661 4.64304,2.223852 6.57388,0.293008 L 125.6188,67.512719 v 15.717215 c 0,1.292238 0.51088,2.554423 1.41996,3.463498 0.91658,0.916587 2.17877,1.427471 3.4635,1.419958 l 4.00443,-0.02254 c 1.28472,-0.0075 2.51686,-0.488345 3.42593,-1.397419 0.91659,-0.916587 1.42747,-2.178773 1.42747,-3.455984 l 0.0225,-34.912957 c -0.0301,-1.262185 -0.53342,-2.516858 -1.45001,-3.433445 -0.90907,-0.909074 -2.17126,-1.419959 -3.40339,-1.419958 l -34.965553,-0.03005 c -1.25467,0.02254 -2.51686,0.533424 -3.43344,1.45001 -0.90908,0.909075 -1.41996,2.171261 -1.41996,3.403393 l 0.0301,4.057026 c -0.0301,1.262185 0.48083,2.52437 1.38991,3.433445 0.90907,0.909074 2.17126,1.419959 3.43344,1.389907 l 15.747273,0.03005 -18.887713,18.887706 c -1.93084,1.930845 -1.52514,4.755736 0.30052,6.581397 z"
         id="path9-3"
         inkscape:connector-curvature="0"
         style="stroke-width:1;stroke-linecap:butt;stroke-linejoin:round" />
      <path
         d="m 27.014484,153.03551 c -1.825661,-1.82566 -4.64304,-2.22385 -6.573884,-0.29301 l -18.8877065,18.88771 1e-6,-15.71722 c 0,-1.29223 -0.510885,-2.55442 -1.41995898,-3.46349 -0.916587,-0.91659 -2.17877302,-1.42747 -3.46349702,-1.41996 l -4.004434,0.0225 c -1.284725,0.008 -2.516858,0.48834 -3.4259325,1.39742 -0.916586,0.91658 -1.427471,2.17877 -1.427471,3.45598 l -0.02254,34.91296 c 0.03005,1.26218 0.533424,2.51686 1.45001,3.43344 0.9090745,0.90908 2.1712605,1.41996 3.4033935,1.41996 l 34.9655485,0.03 c 1.254671,-0.0225 2.516857,-0.53342 3.433444,-1.45001 0.909074,-0.90907 1.419959,-2.17126 1.419959,-3.40339 l -0.03005,-4.05703 c 0.03005,-1.26218 -0.480832,-2.52437 -1.389906,-3.43344 -0.909075,-0.90908 -2.17126,-1.41996 -3.433446,-1.38991 l -15.747269,-0.03 18.887706,-18.88771 c 1.930844,-1.93084 1.52514,-4.75573 -0.300521,-6.58139 z"
         id="path9-6"
         inkscape:connector-curvature="0"
         style="stroke-width:1;stroke-linecap:butt;stroke-linejoin:round"
         inkscape:transform-center-x="-20.278384"
         inkscape:transform-center-y="-33.653489" />
      <path
         d="m 30.534072,83.409502 c 1.82567,-1.825661 2.22386,-4.64304 0.29301,-6.573884 l -18.8877,-18.887706 15.71721,10e-7 c 1.29224,0 2.55442,-0.510885 3.4635,-1.419959 0.91659,-0.916588 1.42747,-2.178774 1.41996,-3.463498 l -0.0225,-4.004434 c -0.008,-1.284725 -0.48835,-2.516858 -1.39742,-3.425933 -0.91659,-0.916586 -2.17877,-1.427471 -3.45598,-1.427471 l -34.9129623,-0.02254 c -1.2621846,0.03005 -2.5168576,0.533424 -3.4334447,1.45001 -0.909074,0.909075 -1.419959,2.171261 -1.419958,3.403394 l -0.03005,34.965548 c 0.02254,1.254672 0.533424,2.516858 1.45001,3.433444 0.9090751,0.909075 2.1712611,1.41996 3.4033927,1.41996 l 4.057026,-0.03005 c 1.262185,0.03005 2.52436996,-0.480832 3.43344496,-1.389907 C 1.1206847,86.527403 1.6315697,85.265218 1.6015177,84.003032 l 0.03001,-15.747267 18.8877043,18.887706 c 1.93085,1.930844 4.75574,1.52514 6.5814,-0.300521 z"
         id="path9-7"
         inkscape:connector-curvature="0"
         style="stroke-width:1;stroke-linecap:butt;stroke-linejoin:round" />
    </g>
  </g>
  <rect
     style="opacity:1;fill:#f9f9f9;fill-opacity:1;stroke:#000000;stroke-width:6;stroke-linecap:butt;stroke-linejoin:round;stroke-miterlimit:4;stroke-dasharray:none;stroke-dashoffset:0;stroke-opacity:1"
     id="rect824"
     width="23.845053"
     height="23.845053"
     x="23.888237"
     y="23.835255"
     rx="5.5896316"
     ry="5.5896316" />
</svg>
